<svg xmlns="http://www.w3.org/2000/svg" width="23" height="22" viewBox="0 0 23 22">
    <path fill="#727682" fill-rule="nonzero" stroke="#FFF" stroke-width=".2" d="M4.614 21.012h14.552a3.618 3.618 0 0 0 3.614-3.614V6.46a3.618 3.618 0 0 0-3.614-3.614h-1.899V1h-1.312v1.846H7.808V1H6.495v1.846H4.614A3.618 3.618 0 0 0 1 6.46v10.938a3.618 3.618 0 0 0 3.614 3.614zM19.162 19.7H4.614a2.323 2.323 0 0 1-2.319-2.32V8.56h19.19v8.838a2.323 2.323 0 0 1-2.319 2.32l-.004-.018zM4.614 4.14h1.899v1.064h1.312V4.14h8.147v1.064h1.313V4.14h1.899a2.323 2.323 0 0 1 2.318 2.32v.804H2.295v-.8A2.323 2.323 0 0 1 4.614 4.14z"/>
</svg>
