<svg xmlns="http://www.w3.org/2000/svg" width="16" height="16" viewBox="0 0 16 16">
    <g fill="none" fill-rule="evenodd">
        <circle cx="8" cy="8" r="8" fill="#38D926"/>
        <circle cx="8" cy="8" r="6" fill="#38D926"/>
        <circle cx="8" cy="8" r="1" fill="#FFF" fill-rule="nonzero" transform="matrix(1 0 0 -1 0 16)"/>
    </g>
</svg>
