<svg xmlns="http://www.w3.org/2000/svg" width="16" height="16" viewBox="0 0 16 16">
    <path fill="#38D926" fill-rule="evenodd" d="M8 16A8 8 0 1 1 8 0a8 8 0 0 1 0 16zm3.244-7.65a.4.4 0 0 0 0-.7L7.095 5.334a.4.4 0 0 0-.595.349v4.636a.4.4 0 0 0 .595.35l4.15-2.319z"/>
</svg>
