<svg xmlns="http://www.w3.org/2000/svg" width="24" height="24" viewBox="0 0 24 24">
    <g fill="none" fill-rule="evenodd">
        <path stroke="#727682" stroke-width="1.1" d="M11.988.55C5.67.55.55 5.678.55 12c0 6.323 5.12 11.45 11.438 11.45 6.33 0 11.462-5.128 11.462-11.45C23.45 5.68 18.318.55 11.988.55z"/>
        <path fill="#727682" d="M17.965 13.765a1.77 1.77 0 0 1-1.765-1.764c0-.97.794-1.765 1.765-1.765.97 0 1.764.794 1.764 1.765a1.77 1.77 0 0 1-1.764 1.764M12.266 13.765a1.77 1.77 0 0 1-1.766-1.764c0-.97.794-1.765 1.766-1.765.971 0 1.765.794 1.765 1.765a1.77 1.77 0 0 1-1.765 1.764M6.265 13.765A1.77 1.77 0 0 1 4.5 12.001c0-.97.794-1.765 1.765-1.765.97 0 1.766.794 1.766 1.765 0 .97-.796 1.764-1.766 1.764"/>
    </g>
</svg>
