<svg id="Group_26672" data-name="Group 26672" xmlns="http://www.w3.org/2000/svg" xmlns:xlink="http://www.w3.org/1999/xlink" width="27.486" height="22" viewBox="0 0 27.486 22">
  <defs>
    <clipPath id="clip-path">
      <rect id="Rectangle_13307" data-name="Rectangle 13307" width="27.486" height="22" fill="#8e98ae" stroke="#090e1a" stroke-width="0.8"/>
    </clipPath>
  </defs>
  <g id="Group_26641" data-name="Group 26641" clip-path="url(#clip-path)">
    <path id="Path_18812" data-name="Path 18812" d="M27.484,16.377q0-6.121,0-12.241A3.979,3.979,0,0,0,24.736.241,6.109,6.109,0,0,1,23.868,0H3.6c-.053.112-.169.077-.254.1A4.01,4.01,0,0,0,.075,3.57C.062,3.647.105,3.747,0,3.8V4.31c.047.016.055.055.066.1a1.315,1.315,0,0,0,1.463,1.1A1.283,1.283,0,0,0,2.78,4.149,1.313,1.313,0,0,1,4.246,2.766q4.052,0,8.1,0,3.28,0,6.56-.01l4.3.01A1.346,1.346,0,0,1,24.754,4.3q0,6.7,0,13.4a1.347,1.347,0,0,1-1.539,1.535l-4.434.01c-.246,0-.493,0-.739-.009a1.6,1.6,0,0,0-.9.184,1.323,1.323,0,0,0-.613,1.412,1.206,1.206,0,0,0,.844,1.068c.064.023.157.008.186.1h6.3a1.023,1.023,0,0,1,.444-.124,4,4,0,0,0,3.16-3.7c.023-.6.012-1.2.012-1.8" fill="#8e98ae" stroke="#090e1a" stroke-width="0.8"/>
    <path id="Path_18813" data-name="Path 18813" d="M7.208,129.684a12.377,12.377,0,0,0-5.687-1.426A1.306,1.306,0,0,0,.08,129.272c-.016.049-.012.108-.08.123v.45c.017.011.044.018.05.033.34.915.616,1.1,1.58,1.128A9.386,9.386,0,0,1,7.7,133.332a9.241,9.241,0,0,1,3.292,6.878c.032.849.222,1.509,1.1,1.793h.579c.021-.021.038-.051.064-.061a1.323,1.323,0,0,0,1.03-1.512,12.052,12.052,0,0,0-1-4.7,12.042,12.042,0,0,0-5.563-6.049" transform="translate(0 -120.004)" fill="#8e98ae" stroke="#090e1a" stroke-width="0.8"/>
    <path id="Path_18814" data-name="Path 18814" d="M2.16,213.436c-1.29-.153-1.62.02-2.16,1.144v.386c.048.014.056.053.068.1a1.273,1.273,0,0,0,1.381,1.076,4.06,4.06,0,0,1,3.363,1.752,3.493,3.493,0,0,1,.694,2,1.638,1.638,0,0,0,1.055,1.765h.579c.017-.048.058-.051.1-.062a1.229,1.229,0,0,0,1.02-1.129,4.056,4.056,0,0,0-.052-1.184,6.775,6.775,0,0,0-6.048-5.845" transform="translate(0 -199.657)" fill="#8e98ae" stroke="#090e1a" stroke-width="0.8"/>
    <path id="Path_18815" data-name="Path 18815" d="M1.577,298.874a1.412,1.412,0,0,0-1.48.991c-.026.075.006.18-.1.222v.322c.084.176.161.356.252.529a1.894,1.894,0,0,0,.906.694h.45c.022-.065.082-.053.131-.068a1.382,1.382,0,0,0,1.032-1.474,1.415,1.415,0,0,0-1.194-1.216" transform="translate(0 -279.631)" fill="#8e98ae" stroke="#090e1a" stroke-width="0.8"/>
  </g>
</svg>
