<svg xmlns="http://www.w3.org/2000/svg" width="12.778" height="15.58" viewBox="0 0 12.778 15.58">
  <g id="Group_2197" data-name="Group 2197" transform="translate(0.481 0.561)">
    <path id="Path_1733" data-name="Path 1733" d="M212.969,433.412a1.283,1.283,0,0,1,.089,1.66l-5.917,7.771a1.015,1.015,0,0,1-1.422.193l-1.062-.808a1.015,1.015,0,0,1-.193-1.422l5.917-7.771a1.283,1.283,0,0,1,1.624-.356" transform="translate(-204.258 -428.705)" fill="none" stroke="#000" stroke-miterlimit="10" stroke-width="0.8"/>
    <rect id="Rectangle_1834" data-name="Rectangle 1834" width="1.211" height="6.5" rx="0.605" transform="translate(7.799 5.905) rotate(-142.716)" fill="none" stroke="#000" stroke-miterlimit="10" stroke-width="0.8"/>
    <line id="Line_75" data-name="Line 75" x1="0.963" y1="0.733" transform="translate(9.567 1.584)" fill="#fff" stroke="#000" stroke-miterlimit="10" stroke-width="0.8"/>
  </g>
</svg>
