<svg xmlns="http://www.w3.org/2000/svg" width="25" height="25" viewBox="0 0 25 25">
  <g id="material_Design_icons_Schedule" data-name="material Design icons_Schedule" transform="translate(-8.075 -7.973)">
    <g id="Ellipse_132" data-name="Ellipse 132" transform="translate(8.075 7.973)" fill="rgba(0,0,0,0)" stroke="#fff" stroke-linecap="round" stroke-linejoin="round" stroke-width="1.5">
      <circle cx="12.5" cy="12.5" r="12.5" stroke="none"/>
      <circle cx="12.5" cy="12.5" r="11.75" fill="none"/>
    </g>
    <g id="Group_1975" data-name="Group 1975" transform="translate(20.235 15.286)">
      <line id="Line_159" data-name="Line 159" x2="0.004" y2="5.198" fill="none" stroke="#fff" stroke-linecap="round" stroke-linejoin="round" stroke-width="1.3"/>
      <line id="Line_160" data-name="Line 160" x1="5.003" y1="5.087" transform="translate(0.004 5.198)" fill="none" stroke="#fff" stroke-linecap="round" stroke-linejoin="round" stroke-width="1.3"/>
    </g>
  </g>
</svg>
