<svg xmlns="http://www.w3.org/2000/svg" width="24.58" height="25.103" viewBox="0 0 24.58 25.103">
  <g id="material_Design_icons_Records" data-name="material Design icons_Records" transform="translate(-8.17 -6.986)">
    <line id="Line_149" data-name="Line 149" x2="1.004" y2="1.752" transform="translate(14.617 8.906)" fill="none" stroke="#000" stroke-linecap="round" stroke-width="1"/>
    <line id="Line_150" data-name="Line 150" x2="1.752" y2="1.004" transform="translate(10.186 12.982)" fill="none" stroke="#000" stroke-linecap="round" stroke-width="1"/>
    <line id="Line_151" data-name="Line 151" x2="2.028" transform="translate(8.67 18.544)" fill="none" stroke="#000" stroke-linecap="round" stroke-width="1"/>
    <line id="Line_152" data-name="Line 152" y1="1.004" x2="1.752" transform="translate(10.147 23.122)" fill="none" stroke="#000" stroke-linecap="round" stroke-width="1"/>
    <line id="Line_153" data-name="Line 153" x1="1.004" y2="1.743" transform="translate(25.362 8.945)" fill="none" stroke="#000" stroke-linecap="round" stroke-width="1"/>
    <line id="Line_154" data-name="Line 154" x1="1.752" y2="1.004" transform="translate(29.021 13.041)" fill="none" stroke="#000" stroke-linecap="round" stroke-width="1"/>
    <line id="Line_155" data-name="Line 155" x1="2.028" transform="translate(30.222 18.613)" fill="none" stroke="#000" stroke-linecap="round" stroke-width="1"/>
    <line id="Line_156" data-name="Line 156" x1="1.752" y1="1.004" transform="translate(28.981 23.181)" fill="none" stroke="#000" stroke-linecap="round" stroke-width="1"/>
    <path id="Path_927" data-name="Path 927" d="M19.958,19.864V24.57c0,1.546-2.215,1.25-2.215,0l-.453-6.33" transform="translate(0.416 -0.159)" fill="none" stroke="#000" stroke-linecap="round" stroke-width="1"/>
    <path id="Path_928" data-name="Path 928" d="M22.668,18.24l-.433,6.33c0,1.546-2.225,1.26-2.225,0" transform="translate(0.546 -0.159)" fill="none" stroke="#000" stroke-width="1"/>
    <path id="Path_929" data-name="Path 929" d="M19.969,8a1.8,1.8,0,0,1,1.969,1.916c0,1.4-.985,3.186-1.969,3.186S18,11.284,18,9.872A1.76,1.76,0,0,1,19.969,8Z" transform="translate(0.491 -0.514)" fill="none" stroke="#000" stroke-width="1"/>
    <path id="Path_930" data-name="Path 930" d="M16.26,27.495V25.88h7.364v1.615" transform="translate(0.518 -0.277)" fill="none" stroke="#000" stroke-linecap="round" stroke-linejoin="round" stroke-width="1"/>
    <path id="Path_931" data-name="Path 931" d="M14.84,31.892V27.6H25v4.292" transform="translate(0.54 -0.304)" fill="#fffdfe" stroke="#000" stroke-linecap="round" stroke-linejoin="round" stroke-width="1"/>
    <path id="Path_932" data-name="Path 932" d="M21.183,12l2.4.63c.571.158,1.181.532,1.073,1.142l-.532,3.042c-.108.61-.6,1.762-1.6,1.142L20.75,16.923" transform="translate(0.635 -0.062)" fill="none" stroke="#000" stroke-linecap="round" stroke-width="1"/>
    <path id="Path_933" data-name="Path 933" d="M17.2,18.163c-.807.177-1.29-.788-1.388-1.319L15.28,13.8c-.108-.61.5-.985,1.073-1.142L18.775,12" transform="translate(0.337 -0.062)" fill="none" stroke="#000" stroke-width="1"/>
    <path id="Path_1080" data-name="Path 1080" d="M0,0H14.267" transform="translate(13.327 31.589)" fill="none" stroke="#000" stroke-linecap="round" stroke-width="1"/>
    <line id="Line_158" data-name="Line 158" x1="0.266" y2="0.965" transform="translate(22.727 14.508)" fill="none" stroke="#000" stroke-linecap="round" stroke-width="1"/>
  </g>
</svg>
