<svg xmlns="http://www.w3.org/2000/svg" width="73.4" height="73.4" viewBox="0 0 73.4 73.4">
  <g id="Group_26906" data-name="Group 26906" transform="translate(0.2 0.2)">
    <g id="Group_28" data-name="Group 28" transform="translate(0.5 0.5)">
      <circle id="Ellipse_1" data-name="Ellipse 1" cx="36" cy="36" r="36" fill="rgba(19,27,43,0.7)" stroke="#9b000d" stroke-width="1.4"/>
      <path id="Path_19" data-name="Path 19" d="M50.63,37.012l-17.663-10.2a1.931,1.931,0,0,0-2.9,1.671v20.4a1.931,1.931,0,0,0,2.9,1.671l17.663-10.2A1.931,1.931,0,0,0,50.63,37.012Z" transform="translate(-2.91 -2.598)" fill="#fff"/>
    </g>
  </g>
</svg>
