<svg xmlns="http://www.w3.org/2000/svg" width="66" height="56.212" viewBox="0 0 66 56.212">
  <g id="Group_2312" data-name="Group 2312" transform="translate(-1036.5 -973.892)">
    <g id="Layer_4" data-name="Layer 4" transform="translate(1042.537 978.143)" opacity="0.6">
      <path id="Path_985" data-name="Path 985" d="M3.78,11.83l1.288,3.123H12.44l1.32-3.123Z" transform="translate(-2.814 0.185)" fill="#c2c2c2"/>
      <rect id="Rectangle_662" data-name="Rectangle 662" width="6.455" height="4.169" transform="translate(36.129 36.668)" fill="#c2c2c2"/>
      <rect id="Rectangle_663" data-name="Rectangle 663" width="5.07" height="15.228" transform="translate(36.134 36.392)" fill="#c2c2c2"/>
      <rect id="Rectangle_664" data-name="Rectangle 664" width="15.566" height="6.857" transform="translate(36.074 29.376)" fill="#c2c2c2"/>
      <rect id="Rectangle_665" data-name="Rectangle 665" width="12.169" height="11.091" transform="translate(36.074 15.19)" fill="#c2c2c2"/>
      <rect id="Rectangle_666" data-name="Rectangle 666" width="3.606" height="36.169" transform="translate(36.138 15.192)" fill="#5d6162"/>
      <rect id="Rectangle_667" data-name="Rectangle 667" width="5.119" height="5.119" transform="translate(46.521 21.179)" fill="#c2c2c2"/>
      <rect id="Rectangle_668" data-name="Rectangle 668" width="5.119" height="14.326" transform="translate(46.521 36.762)" fill="#c2c2c2"/>
      <rect id="Rectangle_669" data-name="Rectangle 669" width="4.99" height="3.928" transform="translate(44.493 36.666)" fill="#c2c2c2"/>
      <rect id="Rectangle_670" data-name="Rectangle 670" width="22.342" height="5.569" transform="translate(2.35 41.607)" fill="#c2c2c2"/>
      <path id="Path_986" data-name="Path 986" d="M19.563,8.37h1a8.6,8.6,0,0,1,8.6,8.6v2.575H11V16.966a8.6,8.6,0,0,1,8.564-8.6Z" transform="translate(1.51 -2.028)" fill="#c2c2c2"/>
      <rect id="Rectangle_671" data-name="Rectangle 671" width="2.028" height="10.318" transform="translate(33.851 41.285)" fill="#ed1c25" opacity="0.7"/>
      <path id="Path_987" data-name="Path 987" d="M18.918,35.852c1.916-4.25,6.1-5.344,9.32-1.014a30.584,30.584,0,0,0,.708-5.248l-11.107.37Z" transform="translate(5.636 11.325)" fill="#ed1c25" opacity="0.7"/>
      <path id="Path_988" data-name="Path 988" d="M3.18,20.66c.224.258,54.28.258,54.28.258l-2.629,2.72L5.52,23.332Z" transform="translate(-3.18 5.69)" fill="#ed1c25" opacity="0.7"/>
      <rect id="Rectangle_672" data-name="Rectangle 672" width="7.211" height="5.569" transform="translate(40.887 6.342)" fill="#ed1c25" opacity="0.7"/>
      <rect id="Rectangle_673" data-name="Rectangle 673" width="7.211" height="5.569" transform="translate(2.334 6.342)" fill="#ed1c25" opacity="0.7"/>
      <rect id="Rectangle_674" data-name="Rectangle 674" width="22.214" height="5.569" transform="translate(2.35 41.607)" fill="#ed1c25" opacity="0.7"/>
      <line id="Line_266" data-name="Line 266" y1="0.322" x2="11.461" transform="translate(24.436 41.204)" fill="#ed1c25"/>
      <path id="Path_989" data-name="Path 989" d="M10.884,34.082s.225-3.445,2.914-2.769A3.058,3.058,0,0,1,15.939,35l-5.119-.145" transform="translate(1.422 12.322)" fill="#fff"/>
      <path id="Path_990" data-name="Path 990" d="M20.561,8.392C17.1,9.422,14.992,16.666,14.7,19.66H11C11,6.847,20.561,8.392,20.561,8.392Z" transform="translate(1.525 -2.05)" fill="#5d6162"/>
      <rect id="Rectangle_675" data-name="Rectangle 675" width="2.237" height="5.618" transform="translate(41.191 6.278)" fill="#9f1c33" opacity="0.7"/>
      <rect id="Rectangle_676" data-name="Rectangle 676" width="2.237" height="5.618" transform="translate(2.35 6.278)" fill="#9f1c33" opacity="0.7"/>
      <path id="Path_991" data-name="Path 991" d="M3.18,20.66l13.393.258-.563,2.415H5.53Z" transform="translate(-3.18 5.689)" fill="#9f1c33" opacity="0.7"/>
      <rect id="Rectangle_677" data-name="Rectangle 677" width="7.195" height="5.569" transform="translate(2.35 41.607)" fill="#9f1c33" opacity="0.7"/>
      <rect id="Rectangle_678" data-name="Rectangle 678" width="33.674" height="12.089" transform="translate(2.334 29.103)" fill="#c2c2c2"/>
      <rect id="Rectangle_679" data-name="Rectangle 679" width="33.674" height="5.698" transform="translate(2.334 20.516)" fill="#c2c2c2"/>
      <rect id="Rectangle_680" data-name="Rectangle 680" width="6.938" height="12.089" transform="translate(2.334 29.087)" fill="#5d6162"/>
      <rect id="Rectangle_681" data-name="Rectangle 681" width="6.938" height="14.101" transform="translate(2.35 12.061)" fill="#c2c2c2"/>
      <rect id="Rectangle_682" data-name="Rectangle 682" width="2.527" height="15.083" transform="translate(2.35 12.065)" fill="#5d6162"/>
      <rect id="Rectangle_683" data-name="Rectangle 683" width="5.006" height="5.859" transform="translate(3.606)" fill="#c2c2c2"/>
      <rect id="Rectangle_684" data-name="Rectangle 684" width="5.006" height="5.859" transform="translate(41.982)" fill="#c2c2c2"/>
      <path id="Path_992" data-name="Path 992" d="M27.97,12.387l1.062,2.688H36.55l1.223-3.445Z" transform="translate(11.71 0.061)" fill="#c2c2c2"/>
      <rect id="Rectangle_685" data-name="Rectangle 685" width="3.702" height="2.881" transform="translate(40.177 12.014)" fill="#5d6162"/>
      <rect id="Rectangle_686" data-name="Rectangle 686" width="2.205" height="5.859" transform="translate(3.606)" fill="#5d6162"/>
      <rect id="Rectangle_687" data-name="Rectangle 687" width="2.205" height="5.859" transform="translate(42.329)" fill="#5d6162"/>
      <path id="Path_993" data-name="Path 993" d="M14.145,29.344v-.515a.917.917,0,0,0-.113-.467.789.789,0,0,0-.241-.386.869.869,0,0,0-.386-.258.789.789,0,0,0-.467-.1h-.322a1.127,1.127,0,0,0-.531.322l-.193.241a1.127,1.127,0,0,0-.161.612v.515a.9.9,0,0,0,.1.467,1.191,1.191,0,0,0,.644.644.9.9,0,0,0,.467.1h.322a1.32,1.32,0,0,0,.531-.322l.193-.241a1.336,1.336,0,0,0,.161-.612Z" transform="translate(1.973 10.028)" fill="#fff"/>
      <path id="Path_994" data-name="Path 994" d="M9.795,30.456V28.717a1.239,1.239,0,0,0-.354-.853,1.207,1.207,0,0,0-.853-.354,1.3,1.3,0,0,0-.853.354,1.239,1.239,0,0,0-.354.853v1.738a1.207,1.207,0,0,0,1.207,1.207,1.175,1.175,0,0,0,.853-.354A1.239,1.239,0,0,0,9.795,30.456Z" transform="translate(-0.619 9.969)" fill="#fff"/>
      <path id="Path_995" data-name="Path 995" d="M18.545,30.633V28.717a1.272,1.272,0,0,0-.354-.853,1.207,1.207,0,0,0-.853-.354,1.272,1.272,0,0,0-.853.354,1.3,1.3,0,0,0-.354.853v1.916a1.272,1.272,0,0,0,.354.853,1.239,1.239,0,0,0,.853.354,1.175,1.175,0,0,0,.853-.354,1.239,1.239,0,0,0,.354-.853Z" transform="translate(4.626 9.971)" fill="#fff"/>
      <path id="Path_996" data-name="Path 996" d="M22.783,30.39a3.7,3.7,0,0,1-.1-.451v.322a4.024,4.024,0,0,1,0-1.078V29.5a5.843,5.843,0,0,1,.161-.724,1.272,1.272,0,0,0-.113-.934,1.239,1.239,0,0,0-1.61-.435,1.3,1.3,0,0,0-.547.724,5.215,5.215,0,0,0,0,2.9,1.272,1.272,0,0,0,.563.724,1.3,1.3,0,0,0,.918.129,1.239,1.239,0,0,0,.853-1.5Z" transform="translate(7.182 9.826)" fill="#fff"/>
    </g>
    <line id="Line_267" data-name="Line 267" x2="65" transform="translate(1037 1029.573)" fill="none" stroke="#010101" stroke-linecap="round" stroke-linejoin="round" stroke-width="1"/>
    <line id="Line_268" data-name="Line 268" x2="22.326" transform="translate(1044.887 1025.146)" fill="none" stroke="#010101" stroke-linecap="round" stroke-linejoin="round" stroke-width="1"/>
    <line id="Line_269" data-name="Line 269" x2="60.541" transform="translate(1039.431 1019.275)" fill="none" stroke="#010101" stroke-linecap="round" stroke-linejoin="round" stroke-width="1"/>
    <line id="Line_270" data-name="Line 270" x2="60.541" transform="translate(1039.431 1014.282)" fill="none" stroke="#010101" stroke-linecap="round" stroke-linejoin="round" stroke-width="1"/>
    <line id="Line_271" data-name="Line 271" x2="60.557" transform="translate(1039.254 1007.073)" fill="none" stroke="#010101" stroke-linecap="round" stroke-linejoin="round" stroke-width="1"/>
    <path id="Path_1001" data-name="Path 1001" d="M23.221,31.03h.225a4.8,4.8,0,0,1,4.829,4.78v3.648H18.44V35.73a4.8,4.8,0,0,1,4.829-4.78Z" transform="translate(1048.539 990.116)" fill="none" stroke="#010101" stroke-linecap="round" stroke-linejoin="round" stroke-width="1"/>
    <path id="Path_1002" data-name="Path 1002" d="M55.039,45.52l-.006-22.285L57.9,20.82H2.85l2.87,2.415V45.641" transform="translate(1039.156 983.963)" fill="none" stroke="#010101" stroke-linecap="round" stroke-linejoin="round" stroke-width="1"/>
    <path id="Path_1003" data-name="Path 1003" d="M13.318,31.23h.113a2.35,2.35,0,0,1,2.4,2.366v1.256H11V33.6a2.35,2.35,0,0,1,2.318-2.366Z" transform="translate(1044.058 990.298)" fill="none" stroke="#010101" stroke-linecap="round" stroke-linejoin="round" stroke-width="1"/>
    <line id="Line_272" data-name="Line 272" y2="4.233" transform="translate(1047.415 1025.343)" fill="none" stroke="#010101" stroke-linecap="round" stroke-linejoin="round" stroke-width="1"/>
    <line id="Line_273" data-name="Line 273" y2="4.233" transform="translate(1050.202 1025.343)" fill="none" stroke="#010101" stroke-linecap="round" stroke-linejoin="round" stroke-width="1"/>
    <line id="Line_274" data-name="Line 274" y2="4.233" transform="translate(1053.042 1025.343)" fill="none" stroke="#010101" stroke-linecap="round" stroke-linejoin="round" stroke-width="1"/>
    <line id="Line_275" data-name="Line 275" y2="4.233" transform="translate(1055.865 1025.343)" fill="none" stroke="#010101" stroke-linecap="round" stroke-linejoin="round" stroke-width="1"/>
    <line id="Line_276" data-name="Line 276" y2="4.233" transform="translate(1058.688 1025.343)" fill="none" stroke="#010101" stroke-linecap="round" stroke-linejoin="round" stroke-width="1"/>
    <line id="Line_277" data-name="Line 277" y2="4.233" transform="translate(1061.527 1025.343)" fill="none" stroke="#010101" stroke-linecap="round" stroke-linejoin="round" stroke-width="1"/>
    <line id="Line_278" data-name="Line 278" y2="4.233" transform="translate(1064.351 1025.343)" fill="none" stroke="#010101" stroke-linecap="round" stroke-linejoin="round" stroke-width="1"/>
    <path id="Path_1004" data-name="Path 1004" d="M4.288,33h0a1.266,1.266,0,0,1,1.288,1.243v3.823H3V34.212A1.268,1.268,0,0,1,4.288,33Z" transform="translate(1039.248 991.362)" fill="none" stroke="#010101" stroke-linecap="round" stroke-linejoin="round" stroke-width="1"/>
    <path id="Path_1005" data-name="Path 1005" d="M2.648,33h0a1.266,1.266,0,0,1,1.288,1.243v3.823H1.36V34.212A1.268,1.268,0,0,1,2.648,33Z" transform="translate(1038.248 991.362)" fill="none" stroke="#010101" stroke-linecap="round" stroke-linejoin="round" stroke-width="1"/>
    <path id="Path_1006" data-name="Path 1006" d="M38.352,33h0a1.27,1.27,0,0,1,1.288,1.252V38.1H37V34.221a1.237,1.237,0,0,1,.411-.888A1.31,1.31,0,0,1,38.352,33Z" transform="translate(1059.752 991.362)" fill="none" stroke="#010101" stroke-linecap="round" stroke-linejoin="round" stroke-width="1"/>
    <path id="Path_1007" data-name="Path 1007" d="M36.688,33h0a1.27,1.27,0,0,1,1.288,1.252V38.1H35.4V34.221A1.271,1.271,0,0,1,36.688,33Z" transform="translate(1058.777 991.362)" fill="none" stroke="#010101" stroke-linecap="round" stroke-linejoin="round" stroke-width="1"/>
    <path id="Path_1008" data-name="Path 1008" d="M8.6,27.46h0a1.288,1.288,0,0,1,1.288,1.288v2.511H7.3V28.764a1.288,1.288,0,0,1,1.3-1.3Z" transform="translate(1041.826 987.936)" fill="none" stroke="#010101" stroke-linecap="round" stroke-linejoin="round" stroke-width="1"/>
    <path id="Path_1009" data-name="Path 1009" d="M10.512,15.311h0A1.288,1.288,0,0,1,11.8,16.6v1.61H9.16V16.6a1.288,1.288,0,0,1,1.352-1.288Z" transform="translate(1042.949 980.438)" fill="none" stroke="#010101" stroke-linecap="round" stroke-linejoin="round" stroke-width="1"/>
    <path id="Path_1010" data-name="Path 1010" d="M12.088,15.31h0A1.288,1.288,0,0,1,13.375,16.6v1.61H10.8V16.6A1.288,1.288,0,0,1,12.088,15.31Z" transform="translate(1043.939 980.439)" fill="none" stroke="#010101" stroke-linecap="round" stroke-linejoin="round" stroke-width="1"/>
    <path id="Path_1011" data-name="Path 1011" d="M13.728,15.31h0A1.288,1.288,0,0,1,15.015,16.6v1.61H12.44V16.6A1.288,1.288,0,0,1,13.728,15.31Z" transform="translate(1044.93 980.439)" fill="none" stroke="#010101" stroke-linecap="round" stroke-linejoin="round" stroke-width="1"/>
    <path id="Path_1012" data-name="Path 1012" d="M15.368,15.31h0A1.288,1.288,0,0,1,16.655,16.6v1.61H14.08V16.6A1.288,1.288,0,0,1,15.368,15.31Z" transform="translate(1045.92 980.439)" fill="none" stroke="#010101" stroke-linecap="round" stroke-linejoin="round" stroke-width="1"/>
    <path id="Path_1013" data-name="Path 1013" d="M17.008,15.31h0A1.288,1.288,0,0,1,18.3,16.6v1.61H15.72V16.6a1.288,1.288,0,0,1,1.288-1.288Z" transform="translate(1046.911 980.439)" fill="none" stroke="#010101" stroke-linecap="round" stroke-linejoin="round" stroke-width="1"/>
    <path id="Path_1014" data-name="Path 1014" d="M18.648,15.31h0A1.288,1.288,0,0,1,19.935,16.6v1.61H17.36V16.6a1.288,1.288,0,0,1,1.288-1.288Z" transform="translate(1047.901 980.439)" fill="none" stroke="#010101" stroke-linecap="round" stroke-linejoin="round" stroke-width="1"/>
    <path id="Path_1015" data-name="Path 1015" d="M20.288,15.31h0A1.288,1.288,0,0,1,21.575,16.6v1.61H19V16.6a1.288,1.288,0,0,1,1.288-1.288Z" transform="translate(1048.891 980.439)" fill="none" stroke="#010101" stroke-linecap="round" stroke-linejoin="round" stroke-width="1"/>
    <path id="Path_1016" data-name="Path 1016" d="M21.928,15.31h0A1.288,1.288,0,0,1,23.215,16.6v1.61H20.64V16.6a1.288,1.288,0,0,1,1.288-1.288Z" transform="translate(1049.882 980.439)" fill="none" stroke="#010101" stroke-linecap="round" stroke-linejoin="round" stroke-width="1"/>
    <path id="Path_1017" data-name="Path 1017" d="M23.568,15.31h0A1.288,1.288,0,0,1,24.855,16.6v1.61H22.28V16.6A1.288,1.288,0,0,1,23.568,15.31Z" transform="translate(1050.872 980.439)" fill="none" stroke="#010101" stroke-linecap="round" stroke-linejoin="round" stroke-width="1"/>
    <path id="Path_1018" data-name="Path 1018" d="M25.208,15.31h0A1.288,1.288,0,0,1,26.5,16.6v1.61H23.92V16.6A1.288,1.288,0,0,1,25.208,15.31Z" transform="translate(1051.863 980.439)" fill="none" stroke="#010101" stroke-linecap="round" stroke-linejoin="round" stroke-width="1"/>
    <path id="Path_1019" data-name="Path 1019" d="M12.948,27.46h0a1.288,1.288,0,0,1,1.288,1.288v2.511H11.66v-2.5a1.288,1.288,0,0,1,1.288-1.288Z" transform="translate(1044.459 987.936)" fill="none" stroke="#010101" stroke-linecap="round" stroke-linejoin="round" stroke-width="1"/>
    <path id="Path_1020" data-name="Path 1020" d="M17.3,27.46h0a1.288,1.288,0,0,1,1.288,1.288v2.511H16V28.764a1.288,1.288,0,0,1,1.3-1.3Z" transform="translate(1047.08 987.936)" fill="none" stroke="#010101" stroke-linecap="round" stroke-linejoin="round" stroke-width="1"/>
    <path id="Path_1021" data-name="Path 1021" d="M21.664,27.46h0a1.288,1.288,0,0,1,1.288,1.288v2.511H20.36V28.764a1.288,1.288,0,0,1,1.3-1.3Z" transform="translate(1049.713 987.936)" fill="none" stroke="#010101" stroke-linecap="round" stroke-linejoin="round" stroke-width="1"/>
    <path id="Path_1022" data-name="Path 1022" d="M31.038,27.46h0a1.288,1.288,0,0,1,1.288,1.288v2.511H29.75v-2.5a1.288,1.288,0,0,1,1.288-1.3Z" transform="translate(1055.384 987.936)" fill="none" stroke="#010101" stroke-linecap="round" stroke-linejoin="round" stroke-width="1"/>
    <path id="Path_1023" data-name="Path 1023" d="M25.72,49.771l.01-36H37.915v5.956H41.3v5.1" transform="translate(1052.881 979.692)" fill="none" stroke="#010101" stroke-linecap="round" stroke-linejoin="round" stroke-width="1"/>
    <path id="Path_1024" data-name="Path 1024" d="M34.958,15.25h0a1.61,1.61,0,0,1,1.61,1.61v1.9H33.3V16.908a1.61,1.61,0,0,1,1.658-1.658Z" transform="translate(1057.496 980.403)" fill="none" stroke="#010101" stroke-linecap="round" stroke-linejoin="round" stroke-width="1"/>
    <line id="Line_279" data-name="Line 279" y1="4.072" transform="translate(1044.887 1000.57)" fill="none" stroke="#010101" stroke-linecap="round" stroke-linejoin="round" stroke-width="1"/>
    <line id="Line_280" data-name="Line 280" y1="2.479" transform="translate(1044.887 993.258)" fill="none" stroke="#010101" stroke-linecap="round" stroke-linejoin="round" stroke-width="1"/>
    <line id="Line_281" data-name="Line 281" y1="1.642" transform="translate(1044.887 997.185)" fill="none" stroke="#010101" stroke-linecap="round" stroke-linejoin="round" stroke-width="1"/>
    <line id="Line_282" data-name="Line 282" y1="1.642" transform="translate(1048.783 997.185)" fill="none" stroke="#010101" stroke-linecap="round" stroke-linejoin="round" stroke-width="1"/>
    <line id="Line_283" data-name="Line 283" y1="2.35" transform="translate(1048.783 1002.036)" fill="none" stroke="#010101" stroke-linecap="round" stroke-linejoin="round" stroke-width="1"/>
    <line id="Line_284" data-name="Line 284" y1="2.35" transform="translate(1052.031 1002.036)" fill="none" stroke="#010101" stroke-linecap="round" stroke-linejoin="round" stroke-width="1"/>
    <line id="Line_285" data-name="Line 285" y1="2.35" transform="translate(1055.335 1002.036)" fill="none" stroke="#010101" stroke-linecap="round" stroke-linejoin="round" stroke-width="1"/>
    <line id="Line_286" data-name="Line 286" y1="2.35" transform="translate(1058.64 1002.036)" fill="none" stroke="#010101" stroke-linecap="round" stroke-linejoin="round" stroke-width="1"/>
    <line id="Line_287" data-name="Line 287" y1="2.35" transform="translate(1061.928 1002.036)" fill="none" stroke="#010101" stroke-linecap="round" stroke-linejoin="round" stroke-width="1"/>
    <line id="Line_288" data-name="Line 288" y1="2.35" transform="translate(1065.233 1002.036)" fill="none" stroke="#010101" stroke-linecap="round" stroke-linejoin="round" stroke-width="1"/>
    <line id="Line_289" data-name="Line 289" y1="2.35" transform="translate(1068.521 1002.036)" fill="none" stroke="#010101" stroke-linecap="round" stroke-linejoin="round" stroke-width="1"/>
    <line id="Line_290" data-name="Line 290" y1="2.35" transform="translate(1071.826 1002.036)" fill="none" stroke="#010101" stroke-linecap="round" stroke-linejoin="round" stroke-width="1"/>
    <line id="Line_291" data-name="Line 291" y1="2.35" transform="translate(1075.13 1002.036)" fill="none" stroke="#010101" stroke-linecap="round" stroke-linejoin="round" stroke-width="1"/>
    <line id="Line_292" data-name="Line 292" y1="2.35" transform="translate(1081.724 1002.036)" fill="none" stroke="#010101" stroke-linecap="round" stroke-linejoin="round" stroke-width="1"/>
    <line id="Line_293" data-name="Line 293" y1="2.35" transform="translate(1088.317 1002.036)" fill="none" stroke="#010101" stroke-linecap="round" stroke-linejoin="round" stroke-width="1"/>
    <line id="Line_294" data-name="Line 294" y1="2.35" transform="translate(1091.553 1002.036)" fill="none" stroke="#010101" stroke-linecap="round" stroke-linejoin="round" stroke-width="1"/>
    <line id="Line_295" data-name="Line 295" y1="2.35" transform="translate(1084.852 1002.036)" fill="none" stroke="#010101" stroke-linecap="round" stroke-linejoin="round" stroke-width="1"/>
    <line id="Line_296" data-name="Line 296" y1="2.35" transform="translate(1081.724 996.831)" fill="none" stroke="#010101" stroke-linecap="round" stroke-linejoin="round" stroke-width="1"/>
    <line id="Line_297" data-name="Line 297" y1="2.35" transform="translate(1088.317 996.831)" fill="none" stroke="#010101" stroke-linecap="round" stroke-linejoin="round" stroke-width="1"/>
    <line id="Line_298" data-name="Line 298" y1="2.35" transform="translate(1084.852 996.831)" fill="none" stroke="#010101" stroke-linecap="round" stroke-linejoin="round" stroke-width="1"/>
    <line id="Line_299" data-name="Line 299" y1="2.431" transform="translate(1042.248 1009.069)" fill="none" stroke="#010101" stroke-linecap="round" stroke-linejoin="round" stroke-width="1"/>
    <line id="Line_300" data-name="Line 300" y1="2.431" transform="translate(1042.248 1016.392)" fill="none" stroke="#010101" stroke-linecap="round" stroke-linejoin="round" stroke-width="1"/>
    <line id="Line_301" data-name="Line 301" y1="2.431" transform="translate(1097.058 1016.392)" fill="none" stroke="#010101" stroke-linecap="round" stroke-linejoin="round" stroke-width="1"/>
    <line id="Line_302" data-name="Line 302" y1="2.431" transform="translate(1097.058 1008.746)" fill="none" stroke="#010101" stroke-linecap="round" stroke-linejoin="round" stroke-width="1"/>
    <path id="Path_1025" data-name="Path 1025" d="M12.44,14.953H5.084L3.78,11.83h9.98Z" transform="translate(1039.723 978.293)" fill="none" stroke="#010101" stroke-linecap="round" stroke-linejoin="round" stroke-width="1"/>
    <line id="Line_303" data-name="Line 303" x2="10.753" transform="translate(1043.117 984.485)" fill="none" stroke="#010101" stroke-linecap="round" stroke-linejoin="round" stroke-width="1"/>
    <line id="Line_304" data-name="Line 304" x2="5.36" transform="translate(1045.805 980.605)" fill="none" stroke="#010101" stroke-linecap="round" stroke-linejoin="round" stroke-width="1"/>
    <path id="Path_1026" data-name="Path 1026" d="M7.834,4.13h.129A2.608,2.608,0,0,1,10.57,6.738v4.217H5.21V6.738A2.608,2.608,0,0,1,7.834,4.13Z" transform="translate(1040.595 973.53)" fill="none" stroke="#010101" stroke-linecap="round" stroke-linejoin="round" stroke-width="1"/>
    <line id="Line_305" data-name="Line 305" y1="3.252" transform="translate(1048.493 974.392)" fill="none" stroke="#010101" stroke-linecap="round" stroke-linejoin="round" stroke-width="1"/>
    <path id="Path_1027" data-name="Path 1027" d="M36.536,14.953H29.164l-1.3-3.123h9.98Z" transform="translate(1054.22 978.293)" fill="none" stroke="#010101" stroke-linecap="round" stroke-linejoin="round" stroke-width="1"/>
    <path id="Path_1028" data-name="Path 1028" d="M28.72,13.939V8.37h7.211v5.569" transform="translate(1054.748 976.2)" fill="none" stroke="#010101" stroke-linecap="round" stroke-linejoin="round" stroke-width="1"/>
    <path id="Path_1029" data-name="Path 1029" d="M4.63,13.939V8.37h7.211v5.569" transform="translate(1040.241 976.2)" fill="none" stroke="#010101" stroke-linecap="round" stroke-linejoin="round" stroke-width="1"/>
    <line id="Line_306" data-name="Line 306" x2="10.753" transform="translate(1081.654 984.485)" fill="none" stroke="#010101" stroke-linecap="round" stroke-linejoin="round" stroke-width="1"/>
    <line id="Line_307" data-name="Line 307" x2="5.344" transform="translate(1084.404 980.605)" fill="none" stroke="#010101" stroke-linecap="round" stroke-linejoin="round" stroke-width="1"/>
    <path id="Path_1030" data-name="Path 1030" d="M31.908,4.13h.129a2.608,2.608,0,0,1,2.608,2.608v4.217H29.3V6.738A2.608,2.608,0,0,1,31.908,4.13Z" transform="translate(1055.104 973.53)" fill="none" stroke="#010101" stroke-linecap="round" stroke-linejoin="round" stroke-width="1"/>
    <line id="Line_308" data-name="Line 308" y1="3.252" transform="translate(1087.081 974.392)" fill="none" stroke="#010101" stroke-linecap="round" stroke-linejoin="round" stroke-width="1"/>
    <line id="Line_309" data-name="Line 309" y1="3.413" transform="translate(1064.03 977.386)" fill="none" stroke="#010101" stroke-linecap="round" stroke-linejoin="round" stroke-width="1"/>
    <path id="Path_1031" data-name="Path 1031" d="M9.16,13.77v5.392H35.832" transform="translate(1042.915 979.494)" fill="none" stroke="#010101" stroke-linecap="round" stroke-linejoin="round" stroke-width="1"/>
    <path id="Path_1032" data-name="Path 1032" d="M19.842,8.37h.419a8.966,8.966,0,0,1,8.966,8.966v2.205H10.86V17.352A8.966,8.966,0,0,1,19.842,8.37Z" transform="translate(1043.954 976.211)" fill="none" stroke="#010101" stroke-linecap="round" stroke-linejoin="round" stroke-width="1"/>
    <line id="Line_310" data-name="Line 310" x2="13.199" transform="translate(1057.403 987.578)" fill="none" stroke="#010101" stroke-linecap="round" stroke-linejoin="round" stroke-width="1"/>
    <line id="Line_311" data-name="Line 311" x2="17.513" transform="translate(1055.28 991.686)" fill="none" stroke="#010101" stroke-linecap="round" stroke-linejoin="round" stroke-width="1"/>
    <ellipse id="Ellipse_108" data-name="Ellipse 108" cx="1.465" cy="1.545" rx="1.465" ry="1.545" transform="translate(1062.534 981.394)" fill="none" stroke="#010101" stroke-linecap="round" stroke-linejoin="round" stroke-width="1"/>
    <circle id="Ellipse_109" data-name="Ellipse 109" cx="1.03" cy="1.03" r="1.03" transform="translate(1062.968 975.326)" stroke-width="1" stroke="#010101" stroke-linecap="round" stroke-linejoin="round" fill="none"/>
    <path id="Path_1159" data-name="Path 1159" d="M0,0,.023,10.227" transform="translate(1081.066 1019.249)" fill="none" stroke="#010101" stroke-linecap="round" stroke-width="1"/>
    <line id="Line_313" data-name="Line 313" y2="10.334" transform="translate(1083.745 1019.249)" fill="none" stroke="#010101" stroke-linecap="round" stroke-linejoin="round" stroke-width="1"/>
    <line id="Line_314" data-name="Line 314" y2="10.334" transform="translate(1089.058 1019.249)" fill="none" stroke="#010101" stroke-linecap="round" stroke-linejoin="round" stroke-width="1"/>
    <line id="Line_315" data-name="Line 315" y2="10.334" transform="translate(1091.762 1019.249)" fill="none" stroke="#010101" stroke-linecap="round" stroke-linejoin="round" stroke-width="1"/>
  </g>
</svg>
