<svg xmlns="http://www.w3.org/2000/svg" width="21" height="26" viewBox="0 0 21 26">
    <g fill="#A70E13" fill-rule="nonzero">
        <path d="M19.932 6.141c-.125-.125-.25-.167-.418-.125l-5.268 1.421c-.083.042-.167.084-.209.126l-7.902 9.574-1.003-1.004c-.167-.167-.46-.167-.585 0a1.906 1.906 0 0 0-.042 2.676L1.62 21.694c-.376-.335-.962-.293-1.338.042a.984.984 0 0 0 0 1.38l2.592 2.591c.168.168.418.293.711.293a.98.98 0 0 0 .71-.293 1.027 1.027 0 0 0 .084-1.338l2.885-2.884c.376.334.836.543 1.338.543.502 0 1.003-.209 1.38-.585a.404.404 0 0 0 0-.585l-1.004-1.004 9.574-7.902a.23.23 0 0 0 .126-.209l1.38-5.184c.041-.167 0-.292-.126-.418zM3.67 25.206c-.084.083-.126.083-.21 0L.869 22.614c-.042-.042-.042-.126 0-.21.041-.041.041-.041.083-.041s.084 0 .084.041l.25.251 2.133 2.133.25.25c.042.042.042.084.042.084s0 .042-.041.084zm.041-1.338L2.205 22.32l2.885-2.885 1.547 1.547-2.927 2.885zm4.098-2.927l-.293-.25-2.132-2.133-.251-.25c-.335-.335-.376-.795-.25-1.171l.96.961 2.133 2.132.962.962c-.377.167-.837.042-1.13-.25zM17.121 1.414l2.475 2.475a.5.5 0 1 1-.707.707l-2.475-2.475a.5.5 0 0 1 .707-.707zm-1.767-.353a.5.5 0 1 1 .707-.707.5.5 0 0 1-.707.707zM15.121 2.414l1.475 1.475a.5.5 0 0 1-.707.707l-1.475-1.475a.5.5 0 1 1 .707-.707zm-1.767-.353a.5.5 0 1 1 .707-.707.5.5 0 0 1-.707.707z"/>
    </g>
</svg>
