<svg xmlns="http://www.w3.org/2000/svg" width="80" height="75" viewBox="0 0 80 75">
    <defs>
        <filter id="a" width="105.4%" height="105.4%" x="-2.7%" y="-2.7%" filterUnits="objectBoundingBox">
            <feOffset in="SourceAlpha" result="shadowOffsetOuter1"/>
            <feGaussianBlur in="shadowOffsetOuter1" result="shadowBlurOuter1" stdDeviation=".5"/>
            <feColorMatrix in="shadowBlurOuter1" result="shadowMatrixOuter1" values="0 0 0 0 0 0 0 0 0 0 0 0 0 0 0 0 0 0 0.134737319 0"/>
            <feMerge>
                <feMergeNode in="shadowMatrixOuter1"/>
                <feMergeNode in="SourceGraphic"/>
            </feMerge>
        </filter>
    </defs>
    <g fill="#FFF" fill-rule="evenodd" filter="url(#a)" transform="translate(-6 1)">
        <path fill-rule="nonzero" d="M89.032 88.247V58.582h-2.967v-5.933h-2.968v-8.9h2.968V31.883H77.16v2.967h-2.967v-2.967H65.29v2.967h-2.967v-2.967h-2.968v-13.35h3.331L46 0 29.314 18.534h3.331v13.349h-2.968v2.967H26.71v-2.967h-8.904v2.967H14.84v-2.967H5.935v11.866h2.968v8.9H5.935v5.933H2.968v29.665H0v2.967h92v-2.967h-2.968zM80.13 58.582v-2.967h2.968v2.967h-2.968zm0-5.933h-2.968v5.933h-2.967v-5.933H65.29v5.933h-2.967v-5.933h-2.968v-8.9h20.774v8.9zm-8.903 5.933h-2.968v-2.967h2.968v2.967zm-11.871-2.967v2.967h-2.968v-2.967h2.968zm8.903-17.799V34.85h2.968v2.966h8.903V34.85h2.968v5.933h-26.71V34.85h2.968v2.966h8.903zM46 4.436l10.023 11.131H35.977L46 4.435zM35.613 25.95h2.968v-2.967h-2.968v-4.45h20.774v7.417H53.42v2.966h2.968v2.967H53.42v11.866h2.968v8.9H53.42v5.933h-2.967v-5.933h-8.904v5.933h-2.967v-5.933h-2.968v-2.967h2.968v-2.966h-2.968v-2.967h2.968V31.883h-2.968V25.95zm11.87 32.632h-2.967v-2.967h2.968v2.967zm-11.87-2.967v2.967h-2.968v-2.967h2.968zM8.903 34.85h2.968v2.966h8.903V34.85h2.968v2.966h8.903V34.85h2.968v5.933H8.903V34.85zm2.968 8.9h20.774v8.899h-2.968v5.933H26.71v-5.933h-8.904v5.933H14.84v-5.933H11.87v-8.9zm11.87 14.832h-2.967v-2.967h2.968v2.967zM8.904 55.615h2.968v2.967H8.903v-2.967zm77.162 5.933v2.967H5.935v-2.967h80.13zm-80.13 5.933h80.13v20.766h-5.936v-7.416c0-5.726-4.66-10.383-10.387-10.383-5.728 0-10.387 4.657-10.387 10.383v7.416h-2.968v-7.416c0-5.726-4.66-10.383-10.387-10.383-5.728 0-10.387 4.657-10.387 10.383v7.416h-2.968v-7.416c0-5.726-4.66-10.383-10.387-10.383S11.871 75.105 11.871 80.83v7.416H5.935V67.481zm71.226 20.766H62.323v-7.416c0-4.09 3.328-7.417 7.419-7.417 4.09 0 7.42 3.327 7.42 7.417v7.416zm-23.742 0H38.581v-7.416c0-4.09 3.328-7.417 7.419-7.417 4.09 0 7.42 3.327 7.42 7.417v7.416zm-23.742 0H14.84v-7.416c0-4.09 3.328-7.417 7.42-7.417 4.09 0 7.418 3.327 7.418 7.417v7.416z"/>
        <path d="M21.23 46.393h3.146v3.145h-3.145zM26.735 46.393h3.145v3.145h-3.145zM14.94 46.393h3.145v3.145H14.94zM67.624 46.393h3.145v3.145h-3.145zM73.915 46.393h3.145v3.145h-3.145zM62.12 46.393h3.145v3.145H62.12z"/>
        <path fill-rule="nonzero" d="M50.325 26.342A4.33 4.33 0 0 0 46 22.017a4.33 4.33 0 0 0-4.325 4.325v4.325h8.65v-4.325zm-2.883 1.441h-2.884v-1.441c0-.795.648-1.442 1.442-1.442.794 0 1.442.647 1.442 1.442v1.441z"/>
        <path d="M43.248 40.103h6.29v3.145h-6.29z"/>
    </g>
</svg>
