<svg xmlns="http://www.w3.org/2000/svg" width="14" height="25" viewBox="0 0 14 25">
    <g fill="none" fill-rule="evenodd" stroke-linecap="round">
        <path stroke="#FF962E" d="M12.052 6.173a4.866 4.866 0 1 0-9.731 0 4.866 4.866 0 0 0 9.731 0zM2.55 7.647l8.806-3.982M3.068 4.032s4.221 1.574 5.9-2.387M5.12 10.535s1.488-5.218 6.528-4.018"/>
        <path stroke="#FFBE2C" stroke-linejoin="round" d="M7.186 12.484l-.134 7.619C.59 17.128 1.334 7.863 1.334 7.863M13.026 8.32s.205 9.937-5.974 11.783M8.725 21.814H5.75a.647.647 0 0 1-.647-.647v-.417c0-.358.29-.647.647-.647h2.975c.357 0 .647.289.647.647v.417c0 .357-.29.647-.647.647zM10.968 24.41H3.353l.557-1.968c.104-.37.467-.628.883-.628h4.68c.407 0 .765.249.877.608l.618 1.988z"/>
    </g>
</svg>
