<svg xmlns="http://www.w3.org/2000/svg" width="24" height="20" viewBox="0 0 24 20">
    <g fill="none" fill-rule="evenodd">
        <path fill="#D44030" fill-rule="nonzero" d="M17.71 1.128a1 1 0 0 1 .071.044v-.044h-.071zm5.51 10.83v3.315c0 2.205-1.784 3.996-3.978 3.996H4.197c-2.194 0-3.977-1.791-3.977-3.996V.564C.22.254.473 0 .782 0h17.56c.31 0 .562.254.562.564v10.054h3.816a.5.5 0 0 1 .5.5v.84z"/>
        <path fill="#FFF" d="M15.436 5.157c.281 0 .512-.26.512-.578 0-.319-.23-.579-.512-.579H4.282c-.282 0-.512.26-.512.579 0 .318.23.578.512.578h11.154zM15.441 9.687c.282 0 .512-.26.512-.578 0-.318-.23-.579-.512-.579h-8.71c-.28 0-.511.26-.511.579 0 .318.23.578.512.578h8.71zM15.428 13.06h-5.046c-.282 0-.512.26-.512.579 0 .318.23.579.512.579h5.042c.281 0 .512-.26.512-.58 0-.317-.226-.578-.508-.578z"/>
    </g>
</svg>
