<svg xmlns="http://www.w3.org/2000/svg" width="26" height="38" viewBox="0 0 26 38">
    <g fill="none" fill-rule="evenodd">
        <path fill-rule="nonzero" d="M-8-1h40v40H-8z"/>
        <g stroke-linecap="round">
            <path stroke="#FF962E" d="M23.14 3.91a3.41 3.41 0 1 0-6.82 0 3.41 3.41 0 0 0 6.82 0z"/>
            <path stroke="#FF6700" stroke-linejoin="round" d="M11.494 10.663L2.056 3.566A1.651 1.651 0 0 1 3.969.874l12.349 8.29s3.509 2.332.593 6.416c0 0-1.186 5.583-.593 6.583 0 0 5.3 7.868 6.648 12.673.318 1.133 2.104 1.428 1.86 2.077-.928.583-4.008 1.387-5.514-3.055-.646-1.905-1.568-3.714-2.81-5.298-1.1-1.404-1.758-1.959-1.758-1.959s1.75 6.645-1.583 6.23c-2.607-.327-8.33-3.302-10.702-4.584a1.443 1.443 0 0 1 1.185-2.625l7.35 2.707c-.083-.499-.333-3.223-.333-3.223s-1.667-.693-1.417-3.86c.25-3.166.75-6.083.75-6.083"/>
            <path stroke="#FF6700" stroke-linejoin="round" d="M13.16 10.496L1.95 12.883a1.832 1.832 0 0 0 .73 3.588l11.209-2.174"/>
        </g>
    </g>
</svg>
