<svg xmlns="http://www.w3.org/2000/svg" width="17" height="17" viewBox="0 0 17 17">
    <g fill="none" fill-rule="nonzero">
        <path d="M-1-1h20v20H-1z"/>
        <path fill="#FFF" d="M9 5v11h3V5H9zM8 5H5v11h3V5zM4 5H1v10.55c0 .25.193.45.425.45H4V5zM1 4h15V1.45c0-.252-.194-.45-.425-.45H1.425a.438.438 0 0 0-.426.45V4zm15 1h-3v11h2.575c.23 0 .424-.2.424-.45V5zm1-.526V15.55c0 .797-.636 1.45-1.425 1.45H1.425c-.79 0-1.426-.653-1.426-1.45V1.45C0 .651.635 0 1.425 0h14.15c.79 0 1.424.652 1.424 1.45v3.024z"/>
    </g>
</svg>
