<?xml version="1.0" encoding="UTF-8"?>
<svg width="15px" height="13px" viewBox="0 0 15 13" version="1.1" xmlns="http://www.w3.org/2000/svg" xmlns:xlink="http://www.w3.org/1999/xlink">
    <!-- Generator: Sketch 52.4 (67378) - http://www.bohemiancoding.com/sketch -->
    <title>Combined Shape</title>
    <desc>Created with Sketch.</desc>
    <g id="Mobile" stroke="none" stroke-width="1" fill="none" fill-rule="evenodd">
        <g id="More" transform="translate(-31.000000, -366.000000)" fill="#999999" fill-rule="nonzero">
            <path d="M45.8750381,367.722084 C45.9537948,367.784397 46.0000293,367.883116 46,367.98721 C46,368.091241 45.9537362,368.189991 45.8749795,368.252273 L44.7486229,369.147549 L44.7486229,370.216469 C45.1361367,370.418598 45.3736669,370.666421 45.3736669,370.969941 C45.3736669,370.977893 45.3730516,370.991126 45.3717917,371.006378 C45.3705611,371.020947 45.368686,371.036851 45.3674261,371.052103 C45.3674261,371.054744 45.3668108,371.058067 45.3668108,371.060708 L44.7473923,376.969852 C44.7486522,377.97183 42.2846905,378.35422 40.3739013,378.5 L40.3739013,376.270741 C40.3739013,375.722691 39.9532499,375.276715 39.4363207,375.276715 L36.9361156,375.276715 C36.4191864,375.276715 35.998535,375.722691 35.998535,376.270741 L35.998535,378.498012 C34.0877458,378.348908 31.6231688,377.958597 31.6231688,376.933415 L31.0018752,371.005695 C31.0006153,370.990474 31,370.97721 31,370.969257 L31,366.993152 C31,366.867905 31.0668905,366.75325 31.1725734,366.696933 C31.2794576,366.640615 31.4050934,366.653195 31.4994668,366.728089 L32.7495839,367.722115 C32.8283407,367.784397 32.8746045,367.883148 32.8746045,367.987179 C32.8746045,368.09121 32.828956,368.18996 32.7495839,368.252242 L31.6244873,369.146866 L31.6244873,370.215785 C32.6158322,369.698239 34.5922521,369.476882 36.1205084,369.382791 C36.1517416,369.356947 36.4023979,369.317186 36.473654,369.362911 C37.0705705,369.332407 37.5699787,369.320478 37.8750146,369.31585 L37.8750146,366.331131 C37.8750146,366.205884 37.9418759,366.091229 38.0481448,366.034911 C38.1537691,365.979246 38.28128,365.990522 38.3750381,366.066068 L39.6251553,367.060094 C39.703912,367.122376 39.7501758,367.221126 39.7501758,367.325157 C39.7501758,367.429188 39.703912,367.527938 39.6251553,367.59022 L38.5000586,368.484844 L38.5000586,369.315819 C38.8050653,369.319795 39.3045027,369.331723 39.9014193,369.36288 C39.9726754,369.317155 40.2226871,369.356916 40.2545648,369.38276 C41.5071725,369.459611 43.0598059,369.622631 44.1255127,369.963924 L44.1255127,366.993121 C44.1255127,366.867874 44.1924032,366.753219 44.2980276,366.696902 C44.4036519,366.640584 44.5305475,366.653164 44.6249209,366.728058 L45.8750381,367.722084 Z M38,372 C41.3137085,372 44,371.552285 44,371 C44,370.447715 41.3137085,370 38,370 C34.6862915,370 32,370.447715 32,371 C32,371.552285 34.6862915,372 38,372 Z" id="Combined-Shape"></path>
        </g>
    </g>
</svg>