<svg xmlns="http://www.w3.org/2000/svg" width="20" height="11" viewBox="0 0 20 11">
    <g fill="none" fill-rule="nonzero">
        <path d="M0-5h20v20H0z"/>
        <path fill="#FFF" d="M9.915 6.213c2.522 0 5.5 1.163 5.5 2.91V11h-11V9.122c0-1.746 2.978-2.909 5.5-2.909zm4.654 2.91c0-1.062-2.565-2.064-4.654-2.064-2.09 0-4.654 1.002-4.654 2.063v1.032h9.308V9.122zm-4.654-3.2a2.964 2.964 0 0 1-2.962-2.961A2.964 2.964 0 0 1 9.915 0a2.965 2.965 0 0 1 2.961 2.962 2.965 2.965 0 0 1-2.961 2.961zm0-.846c1.165 0 2.115-.95 2.115-2.115 0-1.166-.95-2.116-2.115-2.116a2.118 2.118 0 0 0-2.116 2.116c0 1.166.95 2.115 2.116 2.115zm8.884 4.045c0-.91-1.913-1.79-4.037-2.022a.423.423 0 1 1 .092-.841c2.541.278 4.792 1.313 4.792 2.863v1.455c0 .233-.19.423-.424.423H16.2a.423.423 0 1 1 0-.846h2.6V9.122zm-5.686-3.495a.423.423 0 1 1 .372-.76c.284.139.576.21.88.21 1.135 0 2.062-.947 2.062-2.115 0-1.169-.927-2.116-2.062-2.116-.303 0-.595.072-.88.211a.423.423 0 1 1-.372-.76A2.821 2.821 0 0 1 14.365 0c1.606 0 2.908 1.33 2.908 2.962 0 1.631-1.302 2.961-2.908 2.961-.436 0-.855-.102-1.252-.296zM.846 9.122v1.032h2.6a.423.423 0 0 1 0 .846H.423A.423.423 0 0 1 0 10.577V9.122c0-1.55 2.25-2.585 4.792-2.863a.423.423 0 0 1 .092.841C2.759 7.333.846 8.213.846 9.122zm6.036-3.495a2.821 2.821 0 0 1-1.251.296c-1.607 0-2.909-1.33-2.909-2.961C2.722 1.33 4.024 0 5.631 0c.435 0 .853.103 1.25.297a.423.423 0 1 1-.371.76 1.977 1.977 0 0 0-.88-.21c-1.134 0-2.061.946-2.061 2.115 0 1.168.927 2.115 2.062 2.115.303 0 .595-.071.879-.21a.423.423 0 1 1 .372.76z"/>
    </g>
</svg>
