<?xml version="1.0" encoding="UTF-8"?>
<svg width="14px" height="10px" viewBox="0 0 14 10" version="1.1" xmlns="http://www.w3.org/2000/svg" xmlns:xlink="http://www.w3.org/1999/xlink">
    <!-- Generator: Sketch 52.4 (67378) - http://www.bohemiancoding.com/sketch -->
    <title></title>
    <desc>Created with Sketch.</desc>
    <g id="Mobile" stroke="none" stroke-width="1" fill="none" fill-rule="evenodd">
        <g id="More" transform="translate(-31.000000, -477.000000)" fill="#999999">
            <path d="M44.72,478.6 L43.32,478.6 L43.32,480 L44.72,480 L44.72,481.4 L43.32,481.4 L43.32,482.8 L44.72,482.8 L44.72,484.2 L43.32,484.2 L43.32,485.6 L44.72,485.6 L44.72,486.44 C44.72,486.589334 44.6640006,486.719999 44.552,486.832 C44.4399994,486.944001 44.3093341,487 44.16,487 L31.56,487 C31.4106659,487 31.2800006,486.944001 31.168,486.832 C31.0559994,486.719999 31,486.589334 31,486.44 L31,485.6 L32.4,485.6 L32.4,484.2 L31,484.2 L31,482.8 L32.4,482.8 L32.4,481.4 L31,481.4 L31,480 L32.4,480 L32.4,478.6 L31,478.6 L31,477.76 C31,477.591999 31.0559994,477.456667 31.168,477.354 C31.2800006,477.251333 31.4106659,477.2 31.56,477.2 L44.16,477.2 C44.3093341,477.2 44.4399994,477.251333 44.552,477.354 C44.6640006,477.456667 44.72,477.591999 44.72,477.76 L44.72,478.6 Z M36.32,484.2 L39.82,482.1 L36.32,480 L36.32,484.2 Z" id=""></path>
        </g>
    </g>
</svg>