<?xml version="1.0" encoding="UTF-8"?>
<svg width="12px" height="12px" viewBox="0 0 12 12" version="1.1" xmlns="http://www.w3.org/2000/svg" xmlns:xlink="http://www.w3.org/1999/xlink">
    <!-- Generator: sketchtool 52.6 (67491) - http://www.bohemiancoding.com/sketch -->
    <title>187F6904-5C7C-4EEB-99EE-9A7EBA10A2E5</title>
    <desc>Created with sketchtool.</desc>
    <g id="More_Landing_Page" stroke="none" stroke-width="1" fill="none" fill-rule="evenodd">
        <g id="01_More" transform="translate(-30.000000, -136.000000)">
            <g id="player-icon" transform="translate(28.000000, 134.000000)">
                <g id="Group-3">
                    <rect id="Bounds" fill-rule="nonzero" x="0" y="0" width="16" height="16"></rect>
                    <g transform="translate(2.000000, 2.000000)" fill="#D44030" id="Combined-Shape">
                        <path d="M5.9996678,7.50081043 C8.00568543,7.50081043 12.000357,8.50279785 12.000357,10.5006443 L12.000357,12.0000506 L1.25233157e-13,12.0000506 L1.25233157e-13,10.5006443 C1.25233157e-13,8.50279785 3.99467157,7.50081043 5.9996678,7.50081043 Z M5.9996678,6.0006892 C4.34603107,6.0006892 2.9998339,4.65449203 2.9998339,2.9998339 C2.9998339,1.34517577 4.34603107,0 5.9996678,0 C7.65432593,0 9.0005231,1.34517577 9.0005231,2.9998339 C9.0005231,4.65449203 7.65432593,6.0006892 5.9996678,6.0006892 Z"></path>
                    </g>
                </g>
            </g>
        </g>
    </g>
</svg>