<?xml version="1.0" encoding="UTF-8"?>
<svg width="16px" height="16px" viewBox="0 0 16 16" version="1.1" xmlns="http://www.w3.org/2000/svg" xmlns:xlink="http://www.w3.org/1999/xlink">
    <!-- Generator: sketchtool 52.6 (67491) - http://www.bohemiancoding.com/sketch -->
    <title>43367C02-8F8E-4381-8786-3F3170C1EAC3</title>
    <desc>Created with sketchtool.</desc>
    <g id="More_Landing_Page" stroke="none" stroke-width="1" fill="none" fill-rule="evenodd">
        <g id="01_More" transform="translate(-28.000000, -72.000000)" fill="#D44030">
            <g id="Series_Icon" transform="translate(28.000000, 72.000000)">
                <path d="M13.1722667,11.2112 L13.2277333,11.4279111 L13.5000889,12.4389333 L14.5056,12.1667556 L14.8833778,12.0666667 C13.4888889,14.4190222 10.9276444,16 8,16 C5.51057778,16 3.28497778,14.8551111 1.81671111,13.0668444 L2.15004444,11.8224 L3.60551111,12.2112 C4.71146667,13.3648 6.27111111,14.0833778 8,14.0833778 C10.1864889,14.0833778 12.1002667,12.9374222 13.1722667,11.2112 Z M6.70008889,0.1056 L7.61671111,1.02222222 L6.55004444,2.08888889 C3.88764444,2.73742222 1.91662222,5.13422222 1.91662222,8 C1.91662222,9.04 2.18133333,10.0172444 2.63893333,10.8723556 L2.41671111,10.8167111 L1.40551111,10.5445333 L1.13884444,11.5500444 L1.03342222,11.9333333 C0.374933333,10.7713778 -1.42108547e-14,9.42844444 -1.42108547e-14,8 C-1.42108547e-14,4.03093333 2.90471111,0.728355556 6.70008889,0.1056 Z M8.07786667,-5.32907052e-15 C12.4545778,0.0408888889 16,3.61368889 16,8 C16,8.99324444 15.8156444,9.944 15.4833778,10.8222222 L14.2389333,11.1557333 L13.8444444,9.6944 C13.9998222,9.15626667 14.0833778,8.58897778 14.0833778,8 C14.0833778,4.69884444 11.4705778,2.02364444 8.19448889,1.92231111 L8.35555556,1.76106667 L9.09457778,1.01671111 L8.35555556,0.283377778 L8.07786667,-5.32907052e-15 Z" id="Fill-1"></path>
                <circle id="Oval" cx="8" cy="8" r="3"></circle>
            </g>
        </g>
    </g>
</svg>