<svg xmlns="http://www.w3.org/2000/svg" width="23" height="25" viewBox="0 0 23 25">
    <g fill="none" fill-rule="evenodd" stroke-linecap="round">
        <path stroke="#E61926" stroke-linejoin="round" d="M9.7 10.9c-.01.01 3.374 2.904 3.374 2.904L9.7 10.9z"/>
        <path stroke="#FD4733" d="M14.842 6.77c-.493.344-1.144.173-1.543.009a.572.572 0 0 0-.645.14L1.168 19.585a.652.652 0 0 0-.124.673c.32.832 1.286 2.715 3.526 2.885a.64.64 0 0 0 .513-.215L16.402 10.42a.565.565 0 0 0 .078-.65c-.178-.331-.39-.87-.27-1.405"/>
        <path stroke="#FD4733" d="M15.27 7.588l-.403-.372a.423.423 0 0 1-.025-.598M14.842 6.618l5.05-5.482a.424.424 0 0 1 .599-.024l1 .921a.423.423 0 0 1 .024.599l-5.401 5.872"/>
        <path stroke="#E61926" stroke-linejoin="round" d="M19.64 22.424a2.999 2.999 0 1 1-5.28-2.847 2.999 2.999 0 0 1 5.28 2.847z"/>
    </g>
</svg>
