<svg xmlns="http://www.w3.org/2000/svg" width="24" height="18" viewBox="0 0 24 18">
    <g fill="none" fill-rule="evenodd" transform="translate(-2 1)">
        <path fill="#A1A4AC" d="M24.324 1.39c-.195-.242-.512-.242-.708 0l-7.51 10.241a.727.727 0 0 0 0 .876.46.46 0 0 0 .354.18c.127 0 .255-.059.353-.18l7.511-10.242a.727.727 0 0 0 0-.876z"/>
        <path fill="#A1A4AC" d="M15.968 12.055l-4.795-4.78c-.25-.098-.503.099-.572.434-.07.335.072.683.318.78l4.794 4.779a.354.354 0 0 0 .127.024c.203 0 .388-.18.447-.458.07-.334-.072-.683-.32-.779zM9.004 8.081c-.176-.26-.498-.302-.719-.096l-3.863 5.44a.678.678 0 0 0-.08.848c.1.15.25.227.4.227a.47.47 0 0 0 .319-.13l3.862-5.44a.678.678 0 0 0 .081-.849z"/>
        <circle cx="4.773" cy="14.319" r="1.631" fill="#FFF" fill-rule="nonzero" stroke="#A1A4AC"/>
        <circle cx="16.131" cy="12.506" r="1.631" fill="#FFF" fill-rule="nonzero" stroke="#A1A4AC"/>
        <circle cx="9.727" cy="7.19" r="1.631" fill="#FFF" fill-rule="nonzero" stroke="#A1A4AC"/>
        <circle cx="23.744" cy="1.994" r="1.631" fill="#FFF" fill-rule="nonzero" stroke="#A1A4AC"/>
    </g>
</svg>
