<svg xmlns="http://www.w3.org/2000/svg" width="8" height="6" viewBox="0 0 8 6">
    <path fill="#000" fill-rule="nonzero" d="M6.983 2.635l-2.59 2.59a.996.996 0 0 1-1.41 0l-2.59-2.59c-.63-.63-.18-1.71.71-1.71h5.18c.89 0 1.33 1.08.7 1.71z" opacity=".4"/>
</svg>
