<svg xmlns="http://www.w3.org/2000/svg" width="11" height="12" viewBox="0 0 11 12">
    <defs>
        <linearGradient id="a" x1="50%" x2="50%" y1="91.697%" y2="8.214%">
            <stop offset="0%" stop-color="#EA6550"/>
            <stop offset="100%" stop-color="#FA9441"/>
        </linearGradient>
    </defs>
    <path fill="url(#a)" fill-rule="nonzero" d="M9.41 10.204a.367.367 0 0 1 .515-.035l1.675 1.442c.37.319-.107.875-.478.557l-.262-.224a714.337 714.337 0 0 1-1.346-1.157c-.033-.028-.033-.028-.056-.05l-.02-.018-.017-.017-.026-.03c-.038-.05-.038-.05.016-.468zm3.121-.8a.369.369 0 0 1-.019-.233.366.366 0 0 1-.219-.073l-.247-.185a.611.611 0 0 1-.058-.048c-.195.016-.399-.025-.604-.103l-1.358 1.497.158.137a248.685 248.685 0 0 0 1.218 1.045l1.297-1.434a1.482 1.482 0 0 1-.168-.604zm.735-.036a.824.824 0 0 0 .108.345.648.648 0 0 1-.09.743l-5.617 6.208a.684.684 0 0 1-.556.227c-1.068-.082-1.722-.777-2.065-1.667a.69.69 0 0 1 .133-.713l5.7-6.286a.651.651 0 0 1 .733-.163c.122.05.232.073.314.066a.37.37 0 0 1 .042-.055l2.507-2.721a.578.578 0 0 1 .815-.033l.497.458c.234.216.25.582.033.815l-2.554 2.776zm-.633-.933l.1.074c.07.053.117.126.136.206l2.304-2.505-.265-.244-2.275 2.47zm-1.724 3.55l-1.375-1.183-3.793 4.182c.25.633.698 1.106 1.395 1.171l3.773-4.17zm-1.13-1.454l.181.16-.013-.345-.167.185z" transform="translate(-5 -5)"/>
</svg>
