<?xml version="1.0" encoding="UTF-8"?>
<svg width="6px" height="6px" viewBox="0 0 6 6" version="1.1" xmlns="http://www.w3.org/2000/svg" xmlns:xlink="http://www.w3.org/1999/xlink">
    <!-- Generator: sketchtool 51.3 (57544) - http://www.bohemiancoding.com/sketch -->
    <title>B8520BE2-82FD-43C8-A3C6-3CF7FF4B5DE1</title>
    <desc>Created with sketchtool.</desc>
    <defs></defs>
    <g id="Score_Card_Live_Live" stroke="none" stroke-width="1" fill="none" fill-rule="evenodd">
        <g id="06_Score_Card_Live_Live_Wagon_Wheel_Interaction" transform="translate(-177.000000, -1300.000000)" fill="#FF3200" fill-rule="nonzero" stroke="#FFFFFF">
            <g id="Ind-4s" transform="translate(177.500000, 1243.000000)">
                <circle id="Player-Point" cx="2.1" cy="60" r="2"></circle>
            </g>
        </g>
    </g>
</svg>