<svg xmlns="http://www.w3.org/2000/svg" width="20" height="18" viewBox="0 0 20 18">
    <defs>
        <path id="a" d="M7 1L5.17 3H2C.9 3 0 3.9 0 5v12c0 1.1.9 2 2 2h16c1.1 0 2-.9 2-2V5c0-1.1-.9-2-2-2h-3.17L13 1H7zm3 13a3.001 3.001 0 0 1 0-6 3.001 3.001 0 0 1 0 6z"/>
    </defs>
    <g fill="none" fill-rule="evenodd">
        <path fill-rule="nonzero" d="M0-1h20v20H0z"/>
        <path stroke="#FFF" d="M7.22.5l-1.83 2H2C1.176 2.5.5 3.176.5 4v12c0 .824.676 1.5 1.5 1.5h16c.824 0 1.5-.676 1.5-1.5V4c0-.824-.676-1.5-1.5-1.5h-3.39l-1.83-2H7.22zm2.78 13a3.501 3.501 0 0 1 0-7 3.501 3.501 0 0 1 0 7z"/>
    </g>
</svg>
