<svg xmlns="http://www.w3.org/2000/svg" width="26" height="41" viewBox="0 0 26 41">
    <g fill="none" fill-rule="evenodd">
        <path fill-rule="nonzero" d="M-7 0h40v40H-7z"/>
        <g stroke="#FF6700" stroke-linecap="round">
            <path d="M11.362 9.766c.972-1.422 2.734-1.265 4.224-2.303 1.451-1.011.59-2.681.727-4.1.157-1.63 1.285-2.508 2.85-2.786 3.018-.54 3.508 1.937 3.576 2.436.007.053.044.083.097.08.371-.024 2.13-.004 2.137.704.011 1.129-4.538 1.196-5.368 1.229"/>
            <path d="M18.333 8.08c.93.2 3.42.2 3.852-.432.43-.63.584-2.623.584-2.623M12.455 12.828L3.025 5.9S.867 6.885.535 9.364l10.625 7.78"/>
            <path d="M20.657 8.197s1.129.48 1.561 1.577c.431 1.096 2.423 4.549 2.423 5.645 0 1.095-.697 1.825-3.187 2.689-1.471.51-2.189.706-2.53.782a.727.727 0 0 0-.429.288c-.183.252-.594.636-1.457.855-1.311.332-2.059-.963-2.059-.963"/>
            <path d="M13.994 17.145s-2.125-.365-2.568.83c-.443 1.195-2.125 7.483-2.48 8.412-.353.93-5.4 7.527-5.4 7.527s-1.107 1.859 0 3.32c1.106 1.46 2.346 1.417 2.7.709.354-.71.249-2.347.249-2.347s5.462-4.914 6.348-6.11c.802-1.083 2.585-5.457 2.9-6.125.024-.051-.303.564-.268.608.508.614 4.155 3.838 4.196 4.283.044.488-2.18 8.008-2.224 9.513-.044 1.506 3.995 2.264 4.703 1.689.708-.577-1.461-2.524-1.461-2.524s2.255-5.108 3.27-8.86a3.909 3.909 0 0 0-.506-3.154l-3.977-4.828M21.077 13.15c-.044.133-.465 2.036-.465 2.036"/>
        </g>
    </g>
</svg>
