<?xml version="1.0" encoding="UTF-8"?>
<svg width="24px" height="24px" viewBox="0 0 24 24" version="1.1" xmlns="http://www.w3.org/2000/svg" xmlns:xlink="http://www.w3.org/1999/xlink">
    <!-- Generator: Sketch 52.5 (67469) - http://www.bohemiancoding.com/sketch -->
    <title>Group 14@3x</title>
    <desc>Created with Sketch.</desc>
    <g id="Approved" stroke="none" stroke-width="1" fill="none" fill-rule="evenodd">
        <g id="04_Fantasy_Scheduled_Error_State" transform="translate(-10.000000, -903.000000)">
            <g id="Group-26" transform="translate(0.000000, 849.000000)">
                <g id="Group-41" transform="translate(0.000000, 44.000000)">
                    <g id="Group-14" transform="translate(10.000000, 10.000000)">
                        <path d="M11.6326531,23.2653061 C18.0571899,23.2653061 23.2653061,18.0571899 23.2653061,11.6326531 C23.2653061,5.20811618 18.0571899,8.8817842e-14 11.6326531,8.8817842e-14 C5.20811618,8.8817842e-14 -3.65929509e-13,5.20811618 -3.65929509e-13,11.6326531 C-3.65929509e-13,18.0571899 5.20811618,23.2653061 11.6326531,23.2653061 Z" id="Oval-2" fill="#FF962E" fill-rule="nonzero" opacity="0.149999991"></path>
                        <path d="M11.9773684,5 C13.6441346,5 14.9660526,6.37939271 14.9660526,7.98868421 C14.9660526,9.65545041 13.6441346,10.9773684 11.9773684,10.9773684 C10.3106022,10.9773684 8.98868421,9.65545041 8.98868421,7.98868421 C8.98868421,6.37939271 10.3106022,5 11.9773684,5 Z M9.50595648,11.4946407 L14.4487804,11.4946407 C16.6328188,11.4946407 17.8397875,13.1039322 17.9547369,15.0580719 C17.9547369,15.2879707 17.8972622,15.4603948 17.7248381,15.6328188 C14.5062551,18.6215031 9.44848179,18.6215031 6.22989879,15.6328188 C6.0574747,15.4603948 6,15.2879707 6,15.0580719 C6.11494939,13.1039322 7.32191802,11.4946407 9.50595648,11.4946407 Z" id="Combined-Shape" fill="#F5A023"></path>
                    </g>
                </g>
            </g>
        </g>
    </g>
</svg>