<svg xmlns="http://www.w3.org/2000/svg" width="12" height="7" viewBox="0 0 12 7">
    <path fill="#ACACAC" fill-rule="nonzero" d="M9.44 3.667l-1.97-1.97A.75.75 0 0 1 8.53.637l2.147 2.146a1.25 1.25 0 0 1 0 1.768L8.53 6.697a.75.75 0 0 1-1.06-1.06l1.97-1.97zm-7.586 0l1.97 1.97a.75.75 0 0 1-1.061 1.06L.616 4.551a1.25 1.25 0 0 1 0-1.768L2.763.636a.75.75 0 1 1 1.06 1.061l-1.97 1.97z"/>
</svg>
