<svg xmlns="http://www.w3.org/2000/svg" width="35" height="35" viewBox="0 0 35 35">
    <g fill="none" fill-rule="evenodd">
        <circle cx="17.5" cy="17.5" r="17.5" fill="#FFF"/>
        <path fill="#EB6651" d="M14.333 11.533l5.802 6.134-5.802 6.133 1.766 1.867 7.568-8-7.568-8z"/>
    </g>
</svg>
