<svg xmlns="http://www.w3.org/2000/svg" width="35" height="35" viewBox="0 0 35 35">
    <g fill="none" fill-rule="nonzero">
        <circle cx="17.5" cy="17.5" r="17.5" fill="#141B2F" opacity=".5"/>
        <path fill="#FFF" d="M23.58 18.341l-8.04 5.169a1 1 0 0 1-1.54-.842V12.332a1 1 0 0 1 1.54-.842l8.04 5.169a1 1 0 0 1 0 1.682z"/>
    </g>
</svg>
