<svg xmlns="http://www.w3.org/2000/svg" width="17" height="15" viewBox="0 0 17 15">
    <g fill="none" fill-rule="nonzero">
        <path d="M-2-3h20v20H-2z"/>
        <path fill="#FFF" d="M7.39 14.575H2.397V9.01a.5.5 0 1 1 1 0v4.565H6.39V8.783h4.194v4.792h2.993V9.041a.5.5 0 1 1 1 0v5.534H9.584V9.783H7.39v4.792zM1.804 7.187h1.093a.5.5 0 1 1 0 1H.501a.5.5 0 0 1-.334-.872L8.153.128a.5.5 0 0 1 .668 0l7.986 7.187a.5.5 0 0 1-.334.872h-2.396a.5.5 0 1 1 0-1h1.093L8.487 1.173 1.804 7.187z"/>
    </g>
</svg>
